00_valid_ready/valid_ready.vcd
$version Generated by VerilatedVcd $end
$timescale 1ps $end
 $scope module tb_valid_ready $end
  $var wire 1 ' clk $end
  $var wire 1 ( rst_n $end
  $var wire 32 " transfer_count [31:0] $end
  $var wire 2 # stall_counter [1:0] $end
  $var wire 1 $ dbg_valid $end
  $var wire 1 % dbg_ready $end
  $var wire 32 & dbg_data [31:0] $end
  $scope module bus $end
   $var wire 32 ) DATA_W [31:0] $end
   $var wire 1 ' clk $end
   $var wire 1 ( rst_n $end
   $var wire 1 $ valid $end
   $var wire 1 % ready $end
   $var wire 32 & data [31:0] $end
  $upscope $end
  $scope module u_sink $end
   $var wire 32 " transfer_count_o [31:0] $end
   $var wire 2 # stall_counter_o [1:0] $end
   $var wire 32 " transfer_count [31:0] $end
   $var wire 2 # stall_counter [1:0] $end
   $scope module bus $end
    $var wire 32 ) DATA_W [31:0] $end
    $var wire 1 ' clk $end
    $var wire 1 ( rst_n $end
    $var wire 1 $ valid $end
    $var wire 1 % ready $end
    $var wire 32 & data [31:0] $end
   $upscope $end
  $upscope $end
  $scope module u_source $end
   $scope module bus $end
    $var wire 32 ) DATA_W [31:0] $end
    $var wire 1 ' clk $end
    $var wire 1 ( rst_n $end
    $var wire 1 $ valid $end
    $var wire 1 % ready $end
    $var wire 32 & data [31:0] $end
   $upscope $end
  $upscope $end
 $upscope $end
$enddefinitions $end


#0
b00000000000000000000000000000000 "
b00 #
0$
0%
b00000000000000000000000000000000 &
0'
0(
b00000000000000000000000000100000 )
#5000
1'
#10000
0'
#15000
1'
#20000
0'
1(
#25000
b01 #
1$
1%
1'
#30000
0'
#35000
b00000000000000000000000000000001 "
b10 #
b00000000000000000000000000000001 &
1'
#40000
0'
#45000
b00000000000000000000000000000010 "
b11 #
b00000000000000000000000000000010 &
1'
#50000
0'
#55000
b00000000000000000000000000000011 "
b00 #
0%
b00000000000000000000000000000011 &
1'
#60000
0'
#65000
b01 #
1%
1'
#70000
0'
#75000
b00000000000000000000000000000100 "
b10 #
b00000000000000000000000000000100 &
1'
#80000
0'
#85000
b00000000000000000000000000000101 "
b11 #
b00000000000000000000000000000101 &
1'
#90000
0'
#95000
b00000000000000000000000000000110 "
b00 #
0%
b00000000000000000000000000000110 &
1'
#100000
0'
#105000
b01 #
1%
1'
#110000
0'
#115000
b00000000000000000000000000000111 "
b10 #
b00000000000000000000000000000111 &
1'
#120000
0'
#125000
b00000000000000000000000000001000 "
b11 #
b00000000000000000000000000001000 &
1'
#130000
0'
#135000
b00000000000000000000000000001001 "
b00 #
0%
b00000000000000000000000000001001 &
1'
#140000
0'
#145000
b01 #
1%
1'
#150000
0'
#155000
b00000000000000000000000000001010 "
b10 #
b00000000000000000000000000001010 &
1'
#160000
0'
#165000
b00000000000000000000000000001011 "
b11 #
b00000000000000000000000000001011 &
1'
#170000
0'
#175000
b00000000000000000000000000001100 "
b00 #
0%
b00000000000000000000000000001100 &
1'
#180000
0'
#185000
b01 #
1%
1'
#190000
0'
#195000
b00000000000000000000000000001101 "
b10 #
b00000000000000000000000000001101 &
1'
#200000
0'
#205000
b00000000000000000000000000001110 "
b11 #
b00000000000000000000000000001110 &
1'
#210000
0'
#215000
b00000000000000000000000000001111 "
b00 #
0%
b00000000000000000000000000001111 &
1'
